Notas de Modelaje de Enfermedades Infecciosas aplicadas en R
…
El proceso con el uso de filter es más rápido que si se quisiera hacer esto de manera manual.

ann_ecoli_k12[which(ann_ecoli_k12$Strand=="+"),]->positives_2
#comprobar que son iguales
any(positives != positives_2)

## [1] FALSE

Ahora, el filtro no está limitado a caractertes, podemos hacer rango completos.

filter(ann_ecoli_k12,50 <= Length & Length <=75)

## # A tibble: 163 x 11
##    `#Name`    Accession    Start   Stop Strand   GeneID Locus `Locus tag`
##    <chr>      <chr>        <dbl>  <dbl> <chr>     <dbl> <chr> <chr>      
##  1 chromosome NC_000913.3  16751  16960 -        944756 mokC  b0018      
##  2 chromosome NC_000913.3  16751  16903 -       2847744 hokC  b4412      
##  3 chromosome NC_000913.3  21181  21399 +        949128 yaaY  b0024      
##  4 chromosome NC_000913.3  59121  59279 +      38094933 yabQ  b0057      
##  5 chromosome NC_000913.3 111649 111846 -        945630 yacG  b0101      
##  6 chromosome NC_000913.3 213925 214125 -       1450233 yaeP  b4406      
##  7 chromosome NC_000913.3 264026 264247 -       1450236 ykfH  b4504      
##  8 chromosome NC_000913.3 294918 295142 -      38094939 ykgV  b4729      
##  9 chromosome NC_000913.3 312112 312339 +        944962 ykgL  b0295      
## 10 chromosome NC_000913.3 399593 399805 +        947355 yaiZ  b0380      
## # ... with 153 more rows, and 3 more variables: Protein product <chr>,
## #   Length <dbl>, Protein Name <chr>
…
3.2.2 Seleccionar

Podemos escoger columnas completas. Solo columnas.

#solo estámostrando la columna seleccionada
select(ann_ecoli_k12,Strand)

## # A tibble: 4,285 x 1
##    Strand
##    <chr> 
##  1 -     
##  2 +     
##  3 +     
##  4 -     
##  5 +     
##  6 -     
##  7 +     
##  8 +     
##  9 +     
## 10 +     
## # ... with 4,275 more rows

Podemos seleccionar combinaciones de columnas.

select(ann_ecoli_k12,c(Locus,Strand))

## # A tibble: 4,285 x 2
##    Locus Strand
##    <chr> <chr> 
##  1 ettA  -     
##  2 slt   +     
##  3 trpR  +     
##  4 yjjX  -     
##  5 ytjC  +     
##  6 rob   -     
##  7 creA  +     
##  8 creB  +     
##  9 creC  +     
## 10 creD  +     
## # ... with 4,275 more rows

Igualmente podemos hacer una selección de cuáles columnas no queremos, usamos el signo -. Solo se va a quedar con las columnas que no estén con este signo -.

select(ann_ecoli_k12,-Strand)

## # A tibble: 4,285 x 10
##    `#Name`    Accession     Start    Stop GeneID Locus `Locus tag` `Protein produc~
##    <chr>      <chr>         <dbl>   <dbl>  <dbl> <chr> <chr>       <chr>           
##  1 chromosome NC_000913.3 4628855 4630522 948909 ettA  b4391       NP_418808.1     
##  2 chromosome NC_000913.3 4630733 4632670 948908 slt   b4392       NP_418809.4     
##  3 chromosome NC_000913.3 4632760 4633086 948917 trpR  b4393       NP_418810.1     
##  4 chromosome NC_000913.3 4633233 4633745 948919 yjjX  b4394       NP_418811.2     
##  5 chromosome NC_000913.3 4633797 4634444 948918 ytjC  b4395       NP_418812.1     
##  6 chromosome NC_000913.3 4634441 4635310 948916 rob   b4396       NP_418813.1     
##  7 chromosome NC_000913.3 4635521 4635994 948920 creA  b4397       NP_418814.1     
##  8 chromosome NC_000913.3 4636007 4636696 948922 creB  b4398       NP_418815.1     
##  9 chromosome NC_000913.3 4636696 4638120 948609 creC  b4399       NP_418816.1     
## 10 chromosome NC_000913.3 4638178 4639530 948868 creD  b4400       NP_418817.1     
## # ... with 4,275 more rows, and 2 more variables: Length <dbl>,
## #   Protein Name <chr>

Otro medio de seleccionar puede ser que cumpla con ciertas condiciones que queremos, por ejemplo, ciertos caracteres de inicio.

select(ann_ecoli_k12,starts_with("S"))#toma las columnas que empiecen con la letra "s", no afectado por si es mayúscula o minúscula

## # A tibble: 4,285 x 3
##      Start    Stop Strand
##      <dbl>   <dbl> <chr> 
##  1 4628855 4630522 -     
##  2 4630733 4632670 +     
##  3 4632760 4633086 +     
##  4 4633233 4633745 -     
##  5 4633797 4634444 +     
##  6 4634441 4635310 -     
##  7 4635521 4635994 +     
##  8 4636007 4636696 +     
##  9 4636696 4638120 +     
## 10 4638178 4639530 +     
## # ... with 4,275 more rows

select(ann_ecoli_k12, contains("t"))#toma todas las columnas que en algún punto tengan la letra "t"

## # A tibble: 4,285 x 7
##      Start    Stop Strand `Locus tag` `Protein product` Length `Protein Name`   
##      <dbl>   <dbl> <chr>  <chr>       <chr>              <dbl> <chr>            
##  1 4628855 4630522 -      b4391       NP_418808.1          555 energy-dependent~
##  2 4630733 4632670 +      b4392       NP_418809.4          645 soluble lytic mu~
##  3 4632760 4633086 +      b4393       NP_418810.1          108 DNA-binding tran~
##  4 4633233 4633745 -      b4394       NP_418811.2          170 ITPase/XTPase    
##  5 4633797 4634444 +      b4395       NP_418812.1          215 putative phospha~
##  6 4634441 4635310 -      b4396       NP_418813.1          289 DNA-binding tran~
##  7 4635521 4635994 +      b4397       NP_418814.1          157 PF05981 family p~
##  8 4636007 4636696 +      b4398       NP_418815.1          229 DNA-binding tran~
##  9 4636696 4638120 +      b4399       NP_418816.1          474 sensory histidin~
## 10 4638178 4639530 +      b4400       NP_418817.1          450 putative inner m~
## # ... with 4,275 more rows

select(ann_ecoli_k12, ends_with("X"))#todas las columnas que terminen en "x", no hay ninguna y eso nos regresa

## # A tibble: 4,285 x 0

#puede haber selección de cadenas completas de caracteres

3.2.2.1 Ejercicios

Seleccionar todas las columnas de tipo chr y todas las de tipo dbl.

ann_ecoli_k12 %>% select(where(is.character))

## # A tibble: 4,285 x 7
##    `#Name`    Accession   Strand Locus `Locus tag` `Protein produc~ `Protein Name`
##    <chr>      <chr>       <chr>  <chr> <chr>       <chr>            <chr>         
##  1 chromosome NC_000913.3 -      ettA  b4391       NP_418808.1      energy-depend~
##  2 chromosome NC_000913.3 +      slt   b4392       NP_418809.4      soluble lytic~
##  3 chromosome NC_000913.3 +      trpR  b4393       NP_418810.1      DNA-binding t~
##  4 chromosome NC_000913.3 -      yjjX  b4394       NP_418811.2      ITPase/XTPase 
##  5 chromosome NC_000913.3 +      ytjC  b4395       NP_418812.1      putative phos~
##  6 chromosome NC_000913.3 -      rob   b4396       NP_418813.1      DNA-binding t~
##  7 chromosome NC_000913.3 +      creA  b4397       NP_418814.1      PF05981 famil~
##  8 chromosome NC_000913.3 +      creB  b4398       NP_418815.1      DNA-binding t~
##  9 chromosome NC_000913.3 +      creC  b4399       NP_418816.1      sensory histi~
## 10 chromosome NC_000913.3 +      creD  b4400       NP_418817.1      putative inne~
## # ... with 4,275 more rows

ann_ecoli_k12 %>% select(where(is.numeric))

## # A tibble: 4,285 x 4
##      Start    Stop GeneID Length
##      <dbl>   <dbl>  <dbl>  <dbl>
##  1 4628855 4630522 948909    555
##  2 4630733 4632670 948908    645
##  3 4632760 4633086 948917    108
##  4 4633233 4633745 948919    170
##  5 4633797 4634444 948918    215
##  6 4634441 4635310 948916    289
##  7 4635521 4635994 948920    157
##  8 4636007 4636696 948922    229
##  9 4636696 4638120 948609    474
## 10 4638178 4639530 948868    450
## # ... with 4,275 more rows

#opción de Cindy
select(ann_ecoli_k12, where(is.character))

## # A tibble: 4,285 x 7
##    `#Name`    Accession   Strand Locus `Locus tag` `Protein produc~ `Protein Name`
##    <chr>      <chr>       <chr>  <chr> <chr>       <chr>            <chr>         
##  1 chromosome NC_000913.3 -      ettA  b4391       NP_418808.1      energy-depend~
##  2 chromosome NC_000913.3 +      slt   b4392       NP_418809.4      soluble lytic~
##  3 chromosome NC_000913.3 +      trpR  b4393       NP_418810.1      DNA-binding t~
##  4 chromosome NC_000913.3 -      yjjX  b4394       NP_418811.2      ITPase/XTPase 
##  5 chromosome NC_000913.3 +      ytjC  b4395       NP_418812.1      putative phos~
##  6 chromosome NC_000913.3 -      rob   b4396       NP_418813.1      DNA-binding t~
##  7 chromosome NC_000913.3 +      creA  b4397       NP_418814.1      PF05981 famil~
##  8 chromosome NC_000913.3 +      creB  b4398       NP_418815.1      DNA-binding t~
##  9 chromosome NC_000913.3 +      creC  b4399       NP_418816.1      sensory histi~
## 10 chromosome NC_000913.3 +      creD  b4400       NP_418817.1      putative inne~
## # ... with 4,275 more rows

select(ann_ecoli_k12, where(is.double))

## # A tibble: 4,285 x 4
##      Start    Stop GeneID Length
##      <dbl>   <dbl>  <dbl>  <dbl>
##  1 4628855 4630522 948909    555
##  2 4630733 4632670 948908    645
##  3 4632760 4633086 948917    108
##  4 4633233 4633745 948919    170
##  5 4633797 4634444 948918    215
##  6 4634441 4635310 948916    289
##  7 4635521 4635994 948920    157
##  8 4636007 4636696 948922    229
##  9 4636696 4638120 948609    474
## 10 4638178 4639530 948868    450
## # ... with 4,275 more rows

Quitar todas las columnas con el nombre del gen y/o de la proteína.

select(ann_ecoli_k12, c(Start, Stop, Strand ,GeneID ,Locus ,'Locus tag' ,Length))

## # A tibble: 4,285 x 7
##      Start    Stop Strand GeneID Locus `Locus tag` Length
##      <dbl>   <dbl> <chr>   <dbl> <chr> <chr>        <dbl>
##  1 4628855 4630522 -      948909 ettA  b4391          555
##  2 4630733 4632670 +      948908 slt   b4392          645
##  3 4632760 4633086 +      948917 trpR  b4393          108
##  4 4633233 4633745 -      948919 yjjX  b4394          170
##  5 4633797 4634444 +      948918 ytjC  b4395          215
##  6 4634441 4635310 -      948916 rob   b4396          289
##  7 4635521 4635994 +      948920 creA  b4397          157
##  8 4636007 4636696 +      948922 creB  b4398          229
##  9 4636696 4638120 +      948609 creC  b4399          474
## 10 4638178 4639530 +      948868 creD  b4400          450
## # ... with 4,275 more rows

Dejar una tabla con su nombre del gen o proteína y que solo contenga esa información más el strand y el tamaño.

tabla<- select(ann_ecoli_k12, c(Accession,Strand, Length))
tabla

## # A tibble: 4,285 x 3
##    Accession   Strand Length
##    <chr>       <chr>   <dbl>
##  1 NC_000913.3 -         555
##  2 NC_000913.3 +         645
##  3 NC_000913.3 +         108
##  4 NC_000913.3 -         170
##  5 NC_000913.3 +         215
##  6 NC_000913.3 -         289
##  7 NC_000913.3 +         157
##  8 NC_000913.3 +         229
##  9 NC_000913.3 +         474
## 10 NC_000913.3 +         450
## # ... with 4,275 more rows

3.2.3 Ordenar

Para hacer orden de las columnas, usamos la función arrange. No se limita a numérico, puede ser caracter.

arrange(ann_ecoli_k12, Length)#por default es de menor a mayor. En caso de querer de mayor a menor es con "-" antes de la columna

## # A tibble: 4,285 x 11
##    `#Name`    Accession     Start    Stop Strand   GeneID Locus `Locus tag`
##    <chr>      <chr>         <dbl>   <dbl> <chr>     <dbl> <chr> <chr>      
##  1 chromosome NC_000913.3 1079120 1079146 +      38094948 ymdG  b4737      
##  2 chromosome NC_000913.3 3737177 3737203 -      63925657 baxL  b4794      
##  3 chromosome NC_000913.3 2483729 2483758 +      63925643 evgL  b4781      
##  4 chromosome NC_000913.3 3573679 3573708 -      63925652 yhgP  b4789      
##  5 chromosome NC_000913.3  754658  754690 -      63925628 ybgV  b4768      
##  6 chromosome NC_000913.3 2347350 2347385 -      63925641 yoaM  b4779      
##  7 chromosome NC_000913.3 1567178 1567219 -      38094958 yddY  b4746      
##  8 chromosome NC_000913.3 2722702 2722743 +      63925645 pssL  b4782      
##  9 chromosome NC_000913.3 3573660 3573701 -      63925651 yhgO  b4788      
## 10 chromosome NC_000913.3   85467   85511 -      38094934 yabR  b4726      
## # ... with 4,275 more rows, and 3 more variables: Protein product <chr>,
## #   Length <dbl>, Protein Name <chr>

arrange(ann_ecoli_k12, -Length)

## # A tibble: 4,285 x 11
##    `#Name`    Accession     Start    Stop Strand  GeneID Locus `Locus tag`
##    <chr>      <chr>         <dbl>   <dbl> <chr>    <dbl> <chr> <chr>      
##  1 chromosome NC_000913.3 2044938 2052014 +       946498 yeeJ  b1978      
##  2 chromosome NC_000913.3 2647326 2652287 -       947302 yfhM  b2520      
##  3 chromosome NC_000913.3 1729087 1733703 +       946156 lhr   b1653      
##  4 chromosome NC_000913.3 2778146 2782726 -       948630 ypjA  b2647      
##  5 chromosome NC_000913.3 3114550 3119112 -      2847716 yghJ  b4466      
##  6 chromosome NC_000913.3  976326  980786 +       945549 mukB  b0924      
##  7 chromosome NC_000913.3 3354725 3359185 +       947724 gltB  b3212      
##  8 chromosome NC_000913.3  523261  527541 +       945116 rhsD  b0497      
##  9 chromosome NC_000913.3 3619192 3623427 +       947994 rhsB  b3482      
## 10 chromosome NC_000913.3 4185350 4189573 +       948487 rpoC  b3988      
## # ... with 4,275 more rows, and 3 more variables: Protein product <chr>,
## #   Length <dbl>, Protein Name <chr>

arrange(ann_ecoli_k12, Start)

## # A tibble: 4,285 x 11
##    `#Name`    Accession   Start  Stop Strand GeneID Locus `Locus tag`
##    <chr>      <chr>       <dbl> <dbl> <chr>   <dbl> <chr> <chr>      
##  1 chromosome NC_000913.3   190   255 +      944742 thrL  b0001      
##  2 chromosome NC_000913.3   337  2799 +      945803 thrA  b0002      
##  3 chromosome NC_000913.3  2801  3733 +      947498 thrB  b0003      
##  4 chromosome NC_000913.3  3734  5020 +      945198 thrC  b0004      
##  5 chromosome NC_000913.3  5234  5530 +      944747 yaaX  b0005      
##  6 chromosome NC_000913.3  5683  6459 -      944749 yaaA  b0006      
##  7 chromosome NC_000913.3  6529  7959 -      944745 yaaJ  b0007      
##  8 chromosome NC_000913.3  8238  9191 +      944748 talB  b0008      
##  9 chromosome NC_000913.3  9306  9893 +      944760 mog   b0009      
## 10 chromosome NC_000913.3  9928 10494 -      944792 satP  b0010      
## # ... with 4,275 more rows, and 3 more variables: Protein product <chr>,
## #   Length <dbl>, Protein Name <chr>

3.2.4 Mutate

Podemos generar nuevas variables a partir de inofrmación previamente existente.

mutate(ann_ecoli_k12, Length_nucleotides=Stop-Start)#no modifica el original, se debe de sobreescribir, pero no es muy recomendable, mejor generar un nuevo objeto con las nuevas variables

## # A tibble: 4,285 x 12
##    `#Name`    Accession     Start    Stop Strand GeneID Locus `Locus tag`
##    <chr>      <chr>         <dbl>   <dbl> <chr>   <dbl> <chr> <chr>      
##  1 chromosome NC_000913.3 4628855 4630522 -      948909 ettA  b4391      
##  2 chromosome NC_000913.3 4630733 4632670 +      948908 slt   b4392      
##  3 chromosome NC_000913.3 4632760 4633086 +      948917 trpR  b4393      
##  4 chromosome NC_000913.3 4633233 4633745 -      948919 yjjX  b4394      
##  5 chromosome NC_000913.3 4633797 4634444 +      948918 ytjC  b4395      
##  6 chromosome NC_000913.3 4634441 4635310 -      948916 rob   b4396      
##  7 chromosome NC_000913.3 4635521 4635994 +      948920 creA  b4397      
##  8 chromosome NC_000913.3 4636007 4636696 +      948922 creB  b4398      
##  9 chromosome NC_000913.3 4636696 4638120 +      948609 creC  b4399      
## 10 chromosome NC_000913.3 4638178 4639530 +      948868 creD  b4400      
## # ... with 4,275 more rows, and 4 more variables: Protein product <chr>,
## #   Length <dbl>, Protein Name <chr>, Length_nucleotides <dbl>

3.2.4.1 Ejercicios

Generar una columna que diga si el tamaño del gen es mayor que el promedio.

kk1<-mutate(ann_ecoli_k12, Length_nucleotides=Stop-Start)
mutate(kk1, Bigger_than_nc_mean=ifelse(Length_nucleotides>mean(Length_nucleotides),T,F))

## # A tibble: 4,285 x 13
##    `#Name`    Accession     Start    Stop Strand GeneID Locus `Locus tag`
##    <chr>      <chr>         <dbl>   <dbl> <chr>   <dbl> <chr> <chr>      
##  1 chromosome NC_000913.3 4628855 4630522 -      948909 ettA  b4391      
##  2 chromosome NC_000913.3 4630733 4632670 +      948908 slt   b4392      
##  3 chromosome NC_000913.3 4632760 4633086 +      948917 trpR  b4393      
##  4 chromosome NC_000913.3 4633233 4633745 -      948919 yjjX  b4394      
##  5 chromosome NC_000913.3 4633797 4634444 +      948918 ytjC  b4395      
##  6 chromosome NC_000913.3 4634441 4635310 -      948916 rob   b4396      
##  7 chromosome NC_000913.3 4635521 4635994 +      948920 creA  b4397      
##  8 chromosome NC_000913.3 4636007 4636696 +      948922 creB  b4398      
##  9 chromosome NC_000913.3 4636696 4638120 +      948609 creC  b4399      
## 10 chromosome NC_000913.3 4638178 4639530 +      948868 creD  b4400      
## # ... with 4,275 more rows, and 5 more variables: Protein product <chr>,
## #   Length <dbl>, Protein Name <chr>, Length_nucleotides <dbl>,
## #   Bigger_than_nc_mean <lgl>

#En un solo paso
mutate(ann_ecoli_k12, Bigger_than_nc_mean=ifelse((Stop-Start)>mean(Stop-Start),T,F))

## # A tibble: 4,285 x 12
##    `#Name`    Accession     Start    Stop Strand GeneID Locus `Locus tag`
##    <chr>      <chr>         <dbl>   <dbl> <chr>   <dbl> <chr> <chr>      
##  1 chromosome NC_000913.3 4628855 4630522 -      948909 ettA  b4391      
##  2 chromosome NC_000913.3 4630733 4632670 +      948908 slt   b4392      
##  3 chromosome NC_000913.3 4632760 4633086 +      948917 trpR  b4393      
##  4 chromosome NC_000913.3 4633233 4633745 -      948919 yjjX  b4394      
##  5 chromosome NC_000913.3 4633797 4634444 +      948918 ytjC  b4395      
##  6 chromosome NC_000913.3 4634441 4635310 -      948916 rob   b4396      
##  7 chromosome NC_000913.3 4635521 4635994 +      948920 creA  b4397      
##  8 chromosome NC_000913.3 4636007 4636696 +      948922 creB  b4398      
##  9 chromosome NC_000913.3 4636696 4638120 +      948609 creC  b4399      
## 10 chromosome NC_000913.3 4638178 4639530 +      948868 creD  b4400      
## # ... with 4,275 more rows, and 4 more variables: Protein product <chr>,
## #   Length <dbl>, Protein Name <chr>, Bigger_than_nc_mean <lgl>
…
